{
    "username": "xgppumakkiiwnn",
    "password": "346c4c0977e26f5f23cea8c89ae9ef3068541848d62d128cc6d755f4503689cd",
    "database" : "d9pe5au8vc0n7",
    "host": "ec2-54-217-213-79.eu-west-1.compute.amazonaws.com",
    "port" : 5432
}


